{
    "config-opts": [ "-DENABLE_TESTING=OFF" ],
    "name": "libkdegames",
    "buildsystem": "cmake-ninja",
    "sources": [ { "type": "git", "url": "https://invent.kde.org/kde/libkdegames.git" } ],
    "modules": [
        {
            "config-opts": [ "-DENABLE_TESTING=OFF" ],
            "name": "openal",
            "buildsystem": "cmake-ninja",
            "sources": [ { "type": "git", "url": "https://github.com/kcat/openal-soft.git", "tag": "1.21.1" } ]
        }
    ]
}
