{
    "id": "org.kde.krdc",
    "branch": "master",
    "runtime": "org.kde.Platform",
    "runtime-version": "5.15-21.08",
    "sdk": "org.kde.Sdk",
    "command": "krdc",
    "tags": ["nightly"],
    "desktop-file-name-suffix": " (Nightly)",
    "finish-args": ["--share=ipc", "--socket=x11", "--socket=wayland" ],

    "modules": [
        {
            "name": "icon",
            "buildsystem": "simple",
            "build-commands": [
                "mkdir -p /app/share/icons/hicolor/32x32/apps/",
                "install -D /usr/share/icons/breeze/apps/48/krdc.svg /app/share/icons/hicolor/32x32/apps/"
            ]
        },
        {
            "name": "libvncserver",
            "buildsystem": "cmake-ninja",
            "sources": [
                { "type": "git", "url": "https://github.com/LibVNC/libvncserver", "branch": "LibVNCServer-0.9.13" }
            ]
        },
        {
            "name": "krdc",
            "buildsystem": "cmake-ninja",
            "sources": [
                { "type": "git", "url": "https://invent.kde.org/kde/krdc.git" }
            ]
        }
    ]
}
