{
    "id": "org.kde.kasts",
    "branch": "master",
    "runtime": "org.kde.Platform",
    "runtime-version": "5.15-21.08",
    "sdk": "org.kde.Sdk",
    "command": "kasts",
    "tags": ["nightly"],
    "desktop-file-name-suffix": " (Nightly)",
    "finish-args": ["--share=network", "--share=ipc", "--socket=x11", "--socket=wayland", "--socket=pulseaudio", "--socket=session-bus"],

    "modules": [
        {
            "name": "kasts",
            "buildsystem": "cmake-ninja",
            "sources": [ { "type": "git", "url": "https://invent.kde.org/plasma-mobile/kasts" } ]
        }
    ]
}
