{
    "id": "org.kde.kiten",
    "branch": "master",
    "runtime": "org.kde.Platform",
    "runtime-version": "5.15-21.08",
    "sdk": "org.kde.Sdk",
    "command": "kiten",
    "tags": ["nightly"],
    "desktop-file-name-suffix": " (Nightly)",
    "finish-args": ["--share=ipc", "--socket=x11", "--socket=wayland" ],

    "modules": [
        {
            "config-opts": [ "-DENABLE_TESTING=OFF" ],
            "name": "kjs",
            "buildsystem": "cmake-ninja",
            "sources": [ { "type": "git", "url": "https://invent.kde.org/frameworks/kjs.git", "tag": "v5.85.0" } ]
        },
        {
            "config-opts": [ "-DENABLE_TESTING=OFF" ],
            "name": "khtml",
            "buildsystem": "cmake-ninja",
            "sources": [ { "type": "git", "url": "https://invent.kde.org/frameworks/khtml.git", "tag": "v5.85.0" } ]
        },
        {
            "name": "kiten",
            "buildsystem": "cmake-ninja",
            "sources": [ { "type": "git", "url": "https://invent.kde.org/kde/kiten.git" } ]
        }
    ]
}
