{
    "id": "org.kde.krfb",
    "branch": "master",
    "runtime": "org.kde.Platform",
    "runtime-version": "5.15-21.08",
    "sdk": "org.kde.Sdk",
    "command": "krfb",
    "tags": ["nightly"],
    "desktop-file-name-suffix": " (Nightly)",
    "finish-args": ["--share=ipc", "--socket=x11", "--socket=wayland" ],

    "modules": [
        {
            "name": "libgpg-error",
            "sources": [ { "type": "archive", "url": "http://mirrors.dotsrc.org/gnupg/libgpg-error/libgpg-error-1.37.tar.bz2", "sha256": "b32d6ff72a73cf79797f7f2d039e95e9c6f92f0c1450215410840ab62aea9763" } ],
            "cleanup": [ "/lib/libgpg-error.la" ],
            "modules": [
                {
                    "name": "gettext",
                    "sources": [{
                        "type": "archive",
                        "url": "https://ftp.gnu.org/pub/gnu/gettext/gettext-0.19.8.tar.gz",
                        "sha256": "3da4f6bd79685648ecf46dab51d66fcdddc156f41ed07e580a696a38ac61d48f"
                    }]
                }
            ]
        },
        {
            "name": "libgcrypt",
            "sources": [
                {
                    "type": "archive",
                    "url": "https://www.gnupg.org/ftp/gcrypt/libgcrypt/libgcrypt-1.8.4.tar.bz2",
                    "sha256": "f638143a0672628fde0cad745e9b14deb85dffb175709cacc1f4fe24b93f2227"
                }
            ]
        },
        {
            "name": "LibVNCServer",
            "buildsystem": "cmake-ninja",
            "sources": [
                {
                    "type": "archive",
                    "url": "https://github.com/LibVNC/libvncserver/archive/LibVNCServer-0.9.13.tar.gz",
                    "sha256": "0ae5bb9175dc0a602fe85c1cf591ac47ee5247b87f2bf164c16b05f87cbfa81a"
                }
            ]
        },
        {
            "name": "icon",
            "buildsystem": "simple",
            "build-commands": [
                "mkdir -p /app/share/icons/hicolor/32x32/apps/",
                "install -D /usr/share/icons/breeze/apps/48/krfb.svg /app/share/icons/hicolor/32x32/apps/"
            ]
        },
        {
            "name": "krfb",
            "buildsystem": "cmake-ninja",
            "config-opts": ["-DCMAKE_BUILD_TYPE=debug", "-DPLASMA_ENABLED=OFF"],
            "sources": [
                { "type": "git", "url": "https://invent.kde.org/kde/krfb.git" }
            ]
        }
    ]
}
