{
    "id": "org.kde.kigo",
    "branch": "master",
    "runtime": "org.kde.Platform",
    "runtime-version": "5.15-21.08",
    "sdk": "org.kde.Sdk",
    "command": "kigo",
    "tags": ["nightly"],
    "desktop-file-name-suffix": " (Nightly)",
    "finish-args": [
        "--share=ipc",
        "--socket=x11",
        "--socket=wayland",
        "--socket=pulseaudio",
        "--device=dri",
        "--filesystem=host"
    ],
    "modules": [
        "libkdegames.json",
        {
            "name": "gnugo",
            "build-options" : {
                "cflags": "-fcommon"
            },
            "sources": [
                {
                    "type": "archive",
                    "url": "https://ftp.gnu.org/gnu/gnugo/gnugo-3.8.tar.gz",
                    "sha256": "da68d7a65f44dcf6ce6e4e630b6f6dd9897249d34425920bfdd4e07ff1866a72"
                }
            ]
        },
        {
            "name": "kigo",
            "buildsystem": "cmake-ninja",
            "sources": [
                { "type": "git", "url": "https://invent.kde.org/kde/kigo.git" }
            ]
        }
    ]
}
