{
    "id": "org.kde.kfind",
    "branch": "master",
    "runtime": "org.kde.Platform",
    "runtime-version": "5.15-21.08",
    "sdk": "org.kde.Sdk",
    "command": "kfind",
    "tags": ["nightly"],
    "desktop-file-name-suffix": " (Nightly)",
    "finish-args": ["--share=ipc", "--socket=x11", "--socket=wayland", "--filesystem=host" ],

    "modules": [
        {
            "name": "kfind",
            "buildsystem": "cmake-ninja",
            "sources": [
                { "type": "git", "url": "https://invent.kde.org/utilities/kfind.git" }
            ]
        }
    ]
}
