{
    "id": "org.kde.kile",
    "branch": "master",
    "runtime": "org.kde.Platform",
    "runtime-version": "5.15-21.08",
    "sdk": "org.kde.Sdk",
    "command": "kile",
    "tags": ["nightly"],
    "desktop-file-name-suffix": " (Nightly)",
    "finish-args": [
        "--share=ipc", "--socket=cups", "--socket=x11", "--socket=wayland", "--filesystem=host",
        "--env=PATH=/app/bin:/app/texlive/bin:/app/texlive/bin/x86_64-linux:/usr/bin/"
    ],
    "separate-locales": false,
    "add-extensions": {
        "org.freedesktop.Sdk.Extension.texlive": {
            "directory": "texlive",
            "version": "20.08"
        }
    },

    "modules": [
        "okular_dependencies.json",
        {
            "name": "okular",
            "buildsystem": "cmake-ninja",
            "builddir": true,
            "sources": [ { "type": "git", "url": "https://invent.kde.org/graphics/okular.git", "branch": "master" } ]
        },
        {
            "name": "konsole",
            "buildsystem": "cmake-ninja",
            "sources": [
                { "type": "git", "url": "https://invent.kde.org/utilities/konsole.git" }
            ]
        },
        {
            "name": "kile",
            "buildsystem": "cmake-ninja",
            "sources": [ { "type": "git", "url": "https://invent.kde.org/office/kile.git" } ]
        },
        {
            "name": "texlive-mountpoint",
            "buildsystem": "simple",
            "build-commands": [ "mkdir -p /app/texlive" ]
        }
    ]
}
