{
    "id": "org.kde.calligragemini",
    "branch": "master",
    "runtime": "org.kde.Platform",
    "runtime-version": "5.15-21.08",
    "sdk": "org.kde.Sdk",
    "command": "calligragemini",
    "tags": ["nightly"],
    "desktop-file-name-suffix": " (Nightly)",
    "finish-args": ["--share=network", "--share=ipc", "--socket=x11", "--socket=wayland" ],

    "modules": [
        "boost.json",
        "eigen.json",
        {
            "name": "kjs",
            "buildsystem": "cmake-ninja",
            "config-opts": [ "-DENABLE_TESTING=OFF" ],
            "sources": [ { "type": "git", "url": "https://invent.kde.org/frameworks/kjs.git", "tag": "v5.85.0" } ]
        },
        {
            "name": "khtml",
            "config-opts": [ "-DENABLE_TESTING=OFF" ],
            "buildsystem": "cmake-ninja",
            "sources": [ { "type": "git", "url": "https://invent.kde.org/frameworks/khtml.git", "tag": "v5.85.0" } ]
        },
        {
            "config-opts": [ "-DENABLE_TESTING=OFF" ],
            "name": "kross",
            "buildsystem": "cmake-ninja",
            "sources": [ { "type": "git", "url": "https://invent.kde.org/frameworks/kross.git", "tag": "v5.85.0" } ]
        },
        {
            "config-opts": [ "-DENABLE_TESTING=OFF" ],
            "name": "kdelibs4support",
            "buildsystem": "cmake-ninja",
            "sources": [ { "type": "git", "url": "https://invent.kde.org/frameworks/kdelibs4support.git", "tag": "v5.85.0" } ]
        },
        {
            "config-opts": [ "-DENABLE_TESTING=OFF" ],
            "name": "kdiagram",
            "buildsystem": "cmake-ninja",
            "sources": [ { "type": "git", "url": "https://invent.kde.org/kde/kdiagram.git" } ]
        },
        {
            "name": "calligragemini",
            "buildsystem": "cmake-ninja",
            "builddir": true,
            "config-opts": ["-DENABLE_TESTING=OFF" , "-DPRODUCTSET=GEMINI"],
            "sources": [ { "type": "git", "url": "https://invent.kde.org/kde/calligra.git" } ]
        }
    ]
}
