{
    "id": "org.kde.massif-visualizer",
    "branch": "master",
    "runtime": "org.kde.Platform",
    "runtime-version": "5.15-21.08",
    "sdk": "org.kde.Sdk",
    "command": "massif-visualizer",
    "tags": ["nightly"],
    "desktop-file-name-suffix": " (Nightly)",
    "finish-args": [
        "--device=dri",
        "--share=ipc",
        "--socket=cups",
        "--socket=wayland",
        "--socket=x11"
    ],
    "modules": [
        "boost.json",
        {
            "name": "graphviz",
            "buildsystem": "autotools",
            "sources": [
                {
                    "type": "archive",
                    "url": "https://www2.graphviz.org/Packages/stable/portable_source/graphviz-2.44.0.tar.gz",
                    "sha256": "9aabd13a8018b708ab3c822de2326c19d0a52ed59f50a6b0f9318c07e2a6d93b"
                }
            ]
        },
        {
            "name": "kgraphviewer",
            "buildsystem": "cmake",
            "sources": [
                {
                    "type": "git",
                    "url": "https://invent.kde.org/graphics/kgraphviewer.git"
                }
            ]
        },
        {
            "name": "kdiagram",
            "buildsystem": "cmake-ninja",
            "sources": [
                {
                    "type": "git",
                    "url": "https://invent.kde.org/graphics/kdiagram.git"
                }
            ]
        },
        {
            "name": "massif-visualizer",
            "buildsystem": "cmake-ninja",
            "sources": [
                {
                    "type": "git",
                    "url": "https://invent.kde.org/sdk/massif-visualizer.git"
                }
            ]
        }
    ]
}
