{
    "id": "org.kde.ktorrent",
    "branch": "master",
    "runtime": "org.kde.Platform",
    "runtime-version": "5.15-21.08",
    "sdk": "org.kde.Sdk",
    "command": "ktorrent",
    "tags": ["nightly"],
    "desktop-file-name-suffix": " (Nightly)",
    "finish-args": [
        "--device=dri",
        "--filesystem=host",
        "--share=ipc",
        "--share=network",
        "--socket=fallback-x11",
        "--socket=wayland",
        "--talk-name=org.kde.StatusNotifierWatcher"
    ],
    "cleanup": [
        "/include",
        "/lib/cmake",
        "/lib/pkgconfig",
        "/share/man"
    ],
    "modules": [
        "boost.json",
        {
            "name": "geoip-database",
            "buildsystem": "simple",
            "build-commands": [
                "gunzip GeoIP{,v6}.dat",
                "mkdir -p ${FLATPAK_DEST}/share/GeoIP",
                "install -m644 -t ${FLATPAK_DEST}/share/GeoIP GeoIP{,v6}.dat"
            ],
            "sources": [
                {
                    "type": "file",
                    "url": "https://sources.archlinux.org/other/packages/geoip-database/20200929/GeoIP.dat.gz",
                    "sha256": "129019d68c6a35ccd903986b5195c8e1c4411482f99c0e406ab886f9aa634dc2"
                },
                {
                    "type": "file",
                    "url": "https://sources.archlinux.org/other/packages/geoip-database/20200929/GeoIPv6.dat.gz",
                    "sha256": "bafe84f8ffd3033faae641033fe9309367d32296868c7dd3c69bf4bc95151186"
                }
            ]
        },
        {
            "name": "geoip",
            "buildsystem": "autotools",
            "sources": [
                {
                    "type": "archive",
                    "url": "https://github.com/maxmind/geoip-api-c/archive/v1.6.12.tar.gz",
                    "sha256": "99b119f8e21e94f1dfd6d49fbeed29a70df1544896e76cd456f25e397b07d476"
                }
            ]
        },
        {
            "name": "qca",
            "buildsystem": "cmake-ninja",
            "config-opts": [
                "-DENABLE_TESTING=OFF"
            ],
            "sources": [
                {
                    "type": "git",
                    "url": "https://invent.kde.org/libraries/qca.git"
                }
            ]
        },
        {
            "name": "kross",
            "buildsystem": "cmake-ninja",
            "config-opts": [
                "-DENABLE_TESTING=OFF"
            ],
            "sources": [
                {
                    "type": "git",
                    "url": "https://invent.kde.org/frameworks/kross.git",
                    "tag": "v5.85.0"
                }
            ]
        },
        {
            "name": "libktorrent",
            "buildsystem": "cmake-ninja",
            "config-opts": [
                "-DENABLE_TESTING=OFF"
            ],
            "sources": [
                {
                    "type": "git",
                    "url": "https://invent.kde.org/network/libktorrent.git"
                }
            ]
        },
        {
            "name": "ktorrent",
            "buildsystem": "cmake-ninja",
            "builddir": true,
            "config-opts": [
                "-DWITH_SYSTEM_GEOIP=ON"
            ],
            "sources": [
                {
                    "type": "git",
                    "url": "https://invent.kde.org/network/ktorrent.git"
                }
            ]
        }
    ]
}
