{
    "id": "org.kde.vvave",
    "rename-icon": "vvave",
    "runtime": "org.kde.Platform",
    "runtime-version": "5.15-21.08",
    "sdk": "org.kde.Sdk",
    "command": "vvave",
    "tags": ["nightly"],
    "desktop-file-name-suffix": " (Nightly)",
    "finish-args": [
        "--share=ipc",
        "--share=network",
        "--socket=x11",
        "--socket=wayland",
        "--device=dri",
        "--filesystem=home",
        "--own-name=org.mpris.MediaPlayer2.vvave",
        "--socket=pulseaudio",
        "--env=XDG_DATA_DIRS=/usr/share:/app/share/"
    ],
    "separate-locales": false,
    "modules": [
        {
            "config-opts": [
                "-DBUILD_SHARED_LIBS=ON"
            ],
            "name": "taglib",
            "buildsystem": "cmake-ninja",
            "sources": [
                {
                    "type": "archive",
                    "url": "https://taglib.github.io/releases/taglib-1.12.tar.gz",
                    "sha256": "7fccd07669a523b07a15bd24c8da1bbb92206cb19e9366c3692af3d79253b703"
                }
            ]
        },
        {
            "name": "mauikit",
            "buildsystem": "cmake-ninja",
            "sources": [
                { "type": "git", "url": "https://invent.kde.org/kde/mauikit.git" }
            ]
        },
        {
            "name": "mauikit-filebrowsing",
            "buildsystem": "cmake-ninja",
            "sources": [
                {
                    "type": "git",
                    "url": "https://invent.kde.org/maui/mauikit-filebrowsing.git",
                    "branch": "master"
                }
            ]
        },
        {
            "name": "kdecoration",
            "buildsystem": "cmake-ninja",
            "sources": [
                {
                    "type": "archive",
                    "sha256": "bc550b7bfde5b5762e76b33ac53f8268b6178ae389c953d729b864b22787d54c",
                    "url": "https://download.kde.org/stable/plasma/5.21.5/kdecoration-5.21.5.tar.xz"
                }
            ]
        },
        {
            "name": "applet-window-buttons",
            "buildsystem": "cmake-ninja",
            "sources": [
                {
                    "type": "git",
                    "url": "https://github.com/psifidotos/applet-window-buttons",
                    "branch": "master"
                }
            ]
        },
        {
            "name": "vvave",
            "buildsystem": "cmake-ninja",
            "config-opts": [ "-DCMAKE_EXE_LINKER_FLAGS=-lz" ],
            "sources": [
                { "type": "git", "url": "https://invent.kde.org/kde/vvave.git" }
            ]
        }
    ]
}

